{"FixedBlocks":[
{
    "baseColor":0,
    "id":"minecraft:glass",
    "nameZH":"玻璃",
    "nameEN":"Glass",
    "icon":"glass.png",
    "version":0
},
{
    "baseColor":1,
    "id":"minecraft:grass_block[snowy=false]",
    "nameZH":"草方块",
    "nameEN":"Grass block",
    "icon":"grass_block.png",
    "version":0,
    "idOld":"minecraft:grass[snowy=false]",
    "endermanPickable":true,
    "wallUseable":false
},
{
    "baseColor":1,
    "id":"minecraft:slime_block",
    "nameZH":"粘液块",
    "nameEN":"Slime block",
    "icon":"slime_block.png",
    "version":0,
    "idOld":"minecraft:slime"
},
{
    "baseColor":2,
    "id":"minecraft:birch_planks",
    "nameZH":"白桦木板",
    "nameEN":"Birch plank",
    "icon":"birch_planks.png",
    "version":0,
    "idOld":"minecraft:planks[variant=birch]",
    "burnable":true
},
{
    "baseColor":2,
    "id":"minecraft:smooth_sandstone",
    "nameZH":"平滑砂岩",
    "nameEN":"Smooth sandstone",
    "icon":"smooth_sandstone.png",
    "version":0,
    "idOld":"minecraft:sandstone[type=smooth_sandstone]"
},
{
    "baseColor":2,
    "id":"minecraft:glowstone",
    "nameZH":"萤石",
    "nameEN":"Glowstone",
    "icon":"glowstone.png",
    "version":0,
    "isGlowing":true
},
{
    "baseColor":2,
    "id":"minecraft:end_stone",
    "nameZH":"末地石",
    "nameEN":"End stone",
    "icon":"end_stone.png",
    "version":0
},
{
    "baseColor":2,
    "id":"minecraft:end_stone_bricks",
    "nameZH":"末地石砖",
    "nameEN":"Endstone bricks",
    "icon":"end_stone_bricks.png",
    "version":0
},
{
    "baseColor":2,
    "id":"minecraft:turtle_egg[eggs=4,hatch=0]",
    "nameZH":"海蛋",
    "nameEN":"Turtle egg",
    "icon":"turtle_egg.png",
    "version":13,
    "needGlass":true,
    "wallUseable":false
},
{
    "baseColor":3,
    "id":"minecraft:mushroom_stem[east=true,west=true,north=true,south=true,up=true,down=true]",
    "nameZH":"蘑菇柄",
    "nameEN":"Mushroom stem",
    "icon":"mushroom_stem.png",
    "version":13,
    "burnable":true
},
{
    "baseColor":3,
    "id":"minecraft:cobweb",
    "nameZH":"蜘蛛网",
    "nameEN":"Cobweb",
    "icon":"cobweb.png",
    "version":0,
    "idOld":"minecraft:web"
},
{
    "baseColor":4,
    "id":"minecraft:redstone_block",
    "nameZH":"红石块",
    "nameEN":"Redstone block",
    "icon":"redstone_block.png",
    "version":0
},
{
    "baseColor":4,
    "id":"minecraft:tnt[unstable=false]",
    "nameZH":"TNT",
    "nameEN":"TNT",
    "icon":"tnt.png",
    "version":0,
    "idOld":"minecraft:tnt[explode=false]",
    "endermanPickable":true,
    "burnable":true
},
{
    "baseColor":5,
    "id":"minecraft:ice",
    "nameZH":"冰",
    "nameEN":"Ice",
    "icon":"ice.png",
    "version":0
},
{
    "baseColor":5,
    "id":"minecraft:packed_ice",
    "nameZH":"浮冰",
    "nameEN":"Packed ice",
    "icon":"packed_ice.png",
    "version":0
},
{
    "baseColor":5,
    "id":"minecraft:blue_ice",
    "nameZH":"蓝冰",
    "nameEN":"Blue ice",
    "icon":"blue_ice.png",
    "version":13
},
{
    "baseColor":6,
    "id":"minecraft:iron_block",
    "nameZH":"铁块",
    "nameEN":"Iron block",
    "icon":"iron_block.png",
    "version":0
},
{
    "baseColor":6,
    "id":"minecraft:brewing_stand[has_bottle_0=false,has_bottle_1=false,has_bottle_2=false]",
    "nameZH":"酿造台",
    "nameEN":"brewing stand",
    "icon":"brewing_stand.png",
    "version":0,
    "wallUseable":false
},
{
    "baseColor":6,
    "id":"minecraft:heavy_weighted_pressure_plate[power=0]",
    "nameZH":"铁压力板",
    "nameEN":"Iron pressure plate",
    "icon":"heavy_weighted_pressure_plate.png",
    "version":0,
    "needGlass":true,
    "wallUseable":false
},
{
    "baseColor":6,
    "id":"minecraft:iron_trapdoor[facing=north,half=top,open=false,powered=false,waterlogged=false]",
    "nameZH":"铁活板门",
    "nameEN":"Iron trapdoor",
    "icon":"iron_trapdoor.png",
    "version":0,
    "idOld":"minecraft:iron_trapdoor[facing=north,half=top,open=false]",
    "wallUseable":false
},
{
    "baseColor":6,
    "id":"minecraft:lantern[hanging=false]",
    "nameZH":"灯笼",
    "nameEN":"lantern",
    "icon":"lantern.png",
    "version":14,
    "wallUseable":false
},
{
    "baseColor":6,
    "id":"minecraft:grindstone[face=floor,facing=north]",
    "nameZH":"砂轮",
    "nameEN":"Grindstone",
    "icon":"grindstone.png",
    "version":14,
    "wallUseable":false
},
{
    "baseColor":7,
    "id":"minecraft:oak_leaves[distance=7,persistent=true]",
    "nameZH":"橡树树叶",
    "nameEN":"Oak leaves",
    "icon":"oak_leaves.png",
    "version":0,
    "idOld":"minecraft:leaves[variant=oak,check_decay=false,decayable=false]"
},
{
    "baseColor":7,
    "id":"minecraft:spruce_leaves[distance=7,persistent=true]",
    "nameZH":"云杉树叶",
    "nameEN":"Spurce leaves",
    "icon":"spruce_leaves.png",
    "version":0,
    "idOld":"minecraft:leaves[variant=spruce,check_decay=false,decayable=false]"
},
{
    "baseColor":7,
    "id":"minecraft:birch_leaves[distance=7,persistent=true]",
    "nameZH":"白桦树叶",
    "nameEN":"Brich leaves",
    "icon":"birch_leaves.png",
    "version":0,
    "idOld":"minecraft:leaves[variant=birch,check_decay=false,decayable=false]"
},
{
    "baseColor":7,
    "id":"minecraft:jungle_leaves[distance=7,persistent=true]",
    "nameZH":"丛林木树叶",
    "nameEN":"Jungle leaves",
    "icon":"jungle_leaves.png",
    "version":0,
    "idOld":"minecraft:leaves[variant=jungle,check_decay=false,decayable=false]"
},
{
    "baseColor":7,
    "id":"minecraft:acacia_leaves[distance=7,persistent=true]",
    "nameZH":"金合欢树叶",
    "nameEN":"Acacia leaves",
    "icon":"acacia_leaves.png",
    "version":0,
    "idOld":"minecraft:leaves2[variant=acacia,check_decay=false,decayable=false]"
},
{
    "baseColor":7,
    "id":"minecraft:dark_oak_leaves[distance=7,persistent=true]",
    "nameZH":"黑橡树树叶",
    "nameEN":"Dark oat leaves",
    "icon":"dark_oak_leaves.png",
    "version":0,
    "idOld":"minecraft:leaves2[variant=dark_oak,check_decay=false,decayable=false]"
},
{
    "baseColor":8,
    "id":"minecraft:white_concrete",
    "nameZH":"白色混凝土",
    "nameEN":"White concrete",
    "icon":"white_concrete.png",
    "version":0,
    "idOld":"minecraft:concrete[color=white]"
},
{
    "baseColor":8,
    "id":"minecraft:white_wool",
    "nameZH":"白色羊毛",
    "nameEN":"White wool",
    "icon":"white_wool.png",
    "version":0,
    "idOld":"minecraft:wool[color=white]"
},
{
    "baseColor":8,
    "id":"minecraft:white_stained_glass",
    "nameZH":"白色染色玻璃",
    "nameEN":"White glass",
    "icon":"white_stained_glass.png",
    "version":0,
    "idOld":"minecraft:stained_glass[color=white]"
},
{
    "baseColor":8,
    "id":"minecraft:snow_block",
    "nameZH":"雪块",
    "nameEN":"Snow",
    "icon":"snow_block.png",
    "version":0,
    "idOld":"minecraft:snow"
},
{
    "baseColor":9,
    "id":"minecraft:clay",
    "nameZH":"黏土块",
    "nameEN":"Clay block",
    "icon":"clay.png",
    "version":0,
    "endermanPickable":true
},
{
    "baseColor":10,
    "id":"minecraft:coarse_dirt",
    "nameZH":"砂土",
    "nameEN":"Coarse dirt",
    "icon":"coarse_dirt.png",
    "version":13,
    "idOld":"minecraft:dirt[variant=coarse_dirt,snowy=false]",
    "endermanPickable":true
},
{
    "baseColor":10,
    "id":"minecraft:polished_granite",
    "nameZH":"磨制花岗岩",
    "nameEN":"Polished granite",
    "icon":"polished_granite.png",
    "version":0,
    "idOld":"minecraft:stone[variant=smooth_granite]"
},
{
    "baseColor":10,
    "id":"minecraft:jungle_planks",
    "nameZH":"丛林木板",
    "nameEN":"Jungle plank",
    "icon":"jungle_planks.png",
    "version":0,
    "idOld":"minecraft:planks[variant=jungle]",
    "burnable":true
},
{
    "baseColor":10,
    "id":"minecraft:brown_mushroom_block[east=true,west=true,north=true,south=true,up=true,down=true]",
    "nameZH":"棕色蘑菇块",
    "nameEN":"Brown mushroom block",
    "icon":"brown_mushroom_block.png",
    "version":0,
    "idOld":"minecraft:brown_mushroom_block[variant=all_outside]"
},
{
    "baseColor":10,
    "id":"minecraft:dirt",
    "nameZH":"泥土",
    "nameEN":"Dirt",
    "icon":"dirt.png",
    "version":0,
    "idOld":"minecraft:dirt[variant=dirt,snowy=false]",
    "endermanPickable":true
},
{
    "baseColor":11,
    "id":"minecraft:cobblestone",
    "nameZH":"圆石",
    "nameEN":"Cobblestone",
    "icon":"cobblestone.png",
    "version":0
},
{
    "baseColor":11,
    "id":"minecraft:stone",
    "nameZH":"石头",
    "nameEN":"Stone",
    "icon":"stone.png",
    "version":0,
    "idOld":"minecraft:stone[variant=stone]"
},
{
    "baseColor":11,
    "id":"minecraft:smooth_stone",
    "nameZH":"平滑石",
    "nameEN":"Smooth stone",
    "icon":"smooth_stone.png",
    "version":13
},
{
    "baseColor":11,
    "id":"minecraft:stone_bricks",
    "nameZH":"石砖",
    "nameEN":"Stone brick",
    "icon":"stone_bricks.png",
    "version":0,
    "idOld":"minecraft:stonebrick[variant=stonebrick]"
},
{
    "baseColor":12,
    "id":"minecraft:water[level=0]",
    "nameZH":"水",
    "nameEN":"Water",
    "icon":"water.png",
    "version":0,
    "wallUseable":false
},
{
    "baseColor":13,
    "id":"minecraft:oak_planks",
    "nameZH":"橡木木板",
    "nameEN":"Oak plank",
    "icon":"oak_planks.png",
    "version":0,
    "idOld":"minecraft:planks[variant=oak]",
    "burnable":true
},
{
    "baseColor":14,
    "id":"minecraft:polished_diorite",
    "nameZH":"磨制闪长岩",
    "nameEN":"Polished diorite",
    "icon":"polished_diorite.png",
    "version":0,
    "idOld":"minecraft:stone[variant=smooth_diorite]"
},
{
    "baseColor":14,
    "id":"minecraft:quartz_block",
    "nameZH":"石英块",
    "nameEN":"Quartz block",
    "icon":"quartz_block.png",
    "version":0,
    "idOld":"minecraft:quartz_block[variant=default]"
},
{
    "baseColor":14,
    "id":"minecraft:sea_lantern",
    "nameZH":"海晶灯",
    "nameEN":"Sea lantern",
    "icon":"sea_lantern.png",
    "version":0
},
{
    "baseColor":14,
    "id":"minecraft:target[power=0]",
    "nameZH":"靶子",
    "nameEN":"Target",
    "icon":"target.png",
    "version":16
},
{
    "baseColor":15,
    "id":"minecraft:orange_concrete",
    "nameZH":"橙色混凝土",
    "nameEN":"Orange concrete",
    "icon":"orange_concrete.png",
    "version":0,
    "idOld":"minecraft:concrete[color=orange]"
},
{
    "baseColor":15,
    "id":"minecraft:orange_wool",
    "nameZH":"橙色羊毛",
    "nameEN":"Orange wool",
    "icon":"orange_wool.png",
    "version":0,
    "idOld":"minecraft:wool[color=orange]"
},
{
    "baseColor":15,
    "id":"minecraft:orange_stained_glass",
    "nameZH":"橙色染色玻璃",
    "nameEN":"Orange glass",
    "icon":"orange_stained_glass.png",
    "version":0
},
{
    "baseColor":15,
    "id":"minecraft:acacia_planks",
    "nameZH":"金合欢木板",
    "nameEN":"Acacia plank",
    "icon":"acacia_planks.png",
    "version":0,
    "idOld":"minecraft:planks[variant=acacia]",
    "burnable":true
},
{
    "baseColor":15,
    "id":"minecraft:pumpkin",
    "nameZH":"南瓜",
    "nameEN":"Pumpkin",
    "icon":"pumpkin.png",
    "version":0,
    "idOld":"minecraft:pumpkin[variant=north]",
    "endermanPickable":true
},
{
    "baseColor":15,
    "id":"minecraft:terracotta",
    "nameZH":"陶瓦",
    "nameEN":"Terracotta",
    "icon":"terracotta.png",
    "version":0,
    "idOld":"minecraft:hardened_clay"
},
{
    "baseColor":15,
    "id":"minecraft:smooth_red_sandstone",
    "nameZH":"平滑红砂岩",
    "nameEN":"Smooth red sandstone",
    "icon":"smooth_red_sandstone.png",
    "version":0,
    "idOld":"minecraft:red_sandstone[type=smooth_red_sandstone]"
},
{
    "baseColor":15,
    "id":"minecraft:honey_block",
    "nameZH":"蜜块",
    "nameEN":"Honey block",
    "icon":"honey_block.png",
    "version":15
},
{
    "baseColor":15,
    "id":"minecraft:honeycomb_block",
    "nameZH":"蜜脾块",
    "nameEN":"Honey comb block",
    "icon":"honeycomb_block.png",
    "version":15
},
{
    "baseColor":15,
    "id":"minecraft:raw_copper_block",
    "nameZH":"生铜块",
    "nameEN":"Raw copper block",
    "icon":"raw_copper_block.png",
    "version":17
},
{
    "baseColor":15,
    "id":"minecraft:waxed_copper_block",
    "nameZH":"涂蜡铜块",
    "nameEN":"Waxed copper",
    "icon":"waxed_copper_block.png",
    "version":17
},
{
    "baseColor":15,
    "id":"minecraft:waxed_cut_copper",
    "nameZH":"涂蜡切制铜块",
    "nameEN":"Waxed cut copper",
    "icon":"waxed_cut_copper.png",
    "version":17
},
{
    "baseColor":16,
    "id":"minecraft:magenta_concrete",
    "nameZH":"品红色混凝土",
    "nameEN":"Magenta concrete",
    "icon":"magenta_concrete.png",
    "version":0,
    "idOld":"minecraft:concrete[color=orange]"
},
{
    "baseColor":16,
    "id":"minecraft:magenta_wool",
    "nameZH":"品红色羊毛",
    "nameEN":"Magenta wool",
    "icon":"magenta_wool.png",
    "version":0,
    "idOld":"minecraft:wool[color=magenta]"
},
{
    "baseColor":16,
    "id":"minecraft:magenta_stained_glass",
    "nameZH":"品红染色玻璃",
    "nameEN":"Magenta glass",
    "icon":"magenta_stained_glass.png",
    "version":0,
    "idOld":"minecraft:stained_glass[color=magenta]"
},
{
    "baseColor":16,
    "id":"minecraft:purpur_block",
    "nameZH":"紫珀块",
    "nameEN":"Purpur block",
    "icon":"purpur_block.png",
    "version":0
},
{
    "baseColor":17,
    "id":"minecraft:light_blue_concrete",
    "nameZH":"浅蓝混凝土",
    "nameEN":"Light blue concrete",
    "icon":"light_blue_concrete.png",
    "version":0,
    "idOld":"minecraft:concrete[color=light_blue]"
},
{
    "baseColor":17,
    "id":"minecraft:light_blue_wool",
    "nameZH":"浅蓝羊毛",
    "nameEN":"light blue wool",
    "icon":"light_blue_wool.png",
    "version":0,
    "idOld":"minecraft:wool[color=light_blue]"
},
{
    "baseColor":17,
    "id":"minecraft:light_blue_stained_glass",
    "nameZH":"浅蓝染色玻璃",
    "nameEN":"Light blue glass",
    "icon":"light_blue_stained_glass.png",
    "version":0,
    "idOld":"minecraft:stained_glass[color=light_blue]"
},
{
    "baseColor":18,
    "id":"minecraft:yellow_concrete",
    "nameZH":"黄色混凝土",
    "nameEN":"Yellow concrete",
    "icon":"yellow_concrete.png",
    "version":0,
    "idOld":"minecraft:concrete[color=yellow]"
},
{
    "baseColor":18,
    "id":"minecraft:yellow_wool",
    "nameZH":"黄色羊毛",
    "nameEN":"Yellow wool",
    "icon":"yellow_wool.png",
    "version":0,
    "idOld":"minecraft:wool[color=yellow]"
},
{
    "baseColor":18,
    "id":"minecraft:yellow_stained_glass",
    "nameZH":"黄色染色玻璃",
    "nameEN":"yellow glass",
    "icon":"yellow_stained_glass.png",
    "version":0,
    "idOld":"minecraft:stained_glass[color=yellow]"
},
{
    "baseColor":18,
    "id":"minecraft:hay_block[axis=y]",
    "nameZH":"干草块",
    "nameEN":"Hay block",
    "icon":"hay_block.png",
    "version":0
},
{
    "baseColor":19,
    "id":"minecraft:lime_concrete",
    "nameZH":"浅绿混凝土",
    "nameEN":"Lime concrete",
    "icon":"lime_concrete.png",
    "version":0,
    "idOld":"minecraft:concrete[color=lime]"
},
{
    "baseColor":19,
    "id":"minecraft:lime_wool",
    "nameZH":"浅绿羊毛",
    "nameEN":"Lime wool",
    "icon":"lime_wool.png",
    "version":0,
    "idOld":"minecraft:wool[color=lime]"
},
{
    "baseColor":19,
    "id":"minecraft:lime_stained_glass",
    "nameZH":"浅绿染色玻璃",
    "nameEN":"Lime glass",
    "icon":"lime_stained_glass.png",
    "version":0,
    "idOld":"minecraft:stained_glass[color=lime]"
},
{
    "baseColor":20,
    "id":"minecraft:pink_concrete",
    "nameZH":"粉色混凝土",
    "nameEN":"Pink concrete",
    "icon":"pink_concrete.png",
    "version":0,
    "idOld":"minecraft:concrete[color=pink]"
},
{
    "baseColor":20,
    "id":"minecraft:pink_wool",
    "nameZH":"粉色羊毛",
    "nameEN":"Pink wool",
    "icon":"pink_wool.png",
    "version":0,
    "idOld":"minecraft:wool[color=pink]"
},
{
    "baseColor":20,
    "id":"minecraft:pink_stained_glass",
    "nameZH":"粉色染色玻璃",
    "nameEN":"Pink glass",
    "icon":"pink_stained_glass.png",
    "version":0,
    "idOld":"minecraft:stained_glass[color=pink]"
},
{
    "baseColor":21,
    "id":"minecraft:gray_concrete",
    "nameZH":"灰色混凝土",
    "nameEN":"Gray concrete",
    "icon":"gray_concrete.png",
    "version":0,
    "idOld":"minecraft:concrete[color=gray]"
},
{
    "baseColor":21,
    "id":"minecraft:gray_wool",
    "nameZH":"灰色羊毛",
    "nameEN":"Gray wool",
    "icon":"gray_wool.png",
    "version":0,
    "idOld":"minecraft:wool[color=gray]",
    "burnable":true
},
{
    "baseColor":21,
    "id":"minecraft:gray_stained_glass",
    "nameZH":"灰色染色玻璃",
    "nameEN":"Gray glass",
    "icon":"gray_stained_glass.png",
    "version":0,
    "idOld":"minecraft:stained_glass[color=gray]"
},
{
    "baseColor":21,
    "id":"minecraft:tinted_glass",
    "nameZH":"遮光玻璃",
    "nameEN":"Tinted glass",
    "icon":"tinted_glass.png",
    "version":17
},
{
    "baseColor":22,
    "id":"minecraft:light_gray_concrete",
    "nameZH":"浅灰混凝土",
    "nameEN":"Light gray concrete",
    "icon":"light_gray_concrete.png",
    "version":0,
    "idOld":"minecraft:concrete[color=silver]"
},
{
    "baseColor":22,
    "id":"minecraft:light_gray_wool",
    "nameZH":"浅灰羊毛",
    "nameEN":"Light gray wool",
    "icon":"light_gray_wool.png",
    "version":0,
    "idOld":"minecraft:wool[color=silver]",
    "burnable":true
},
{
    "baseColor":22,
    "id":"minecraft:light_gray_stained_glass",
    "nameZH":"浅灰染色玻璃",
    "nameEN":"Light gray glass",
    "icon":"light_gray_stained_glass.png",
    "version":0,
    "idOld":"minecraft:stained_glass[color=silver]"
},
{
    "baseColor":23,
    "id":"minecraft:cyan_concrete",
    "nameZH":"青色混凝土",
    "nameEN":"Cyan concrete",
    "icon":"cyan_concrete.png",
    "version":0,
    "idOld":"minecraft:concrete[color=cyan]"
},
{
    "baseColor":23,
    "id":"minecraft:cyan_wool",
    "nameZH":"青色羊毛",
    "nameEN":"Cyan wool",
    "icon":"cyan_wool.png",
    "version":0,
    "idOld":"minecraft:wool[color=cyan]",
    "burnable":true
},
{
    "baseColor":23,
    "id":"minecraft:cyan_stained_glass",
    "nameZH":"青色染色玻璃",
    "nameEN":"Cyan glass",
    "icon":"cyan_stained_glass.png",
    "version":0,
    "idOld":"minecraft:stained_glass[color=cyan]"
},
{
    "baseColor":23,
    "id":"minecraft:prismarine",
    "nameZH":"海晶石",
    "nameEN":"Prismarine",
    "icon":"prismarine.png",
    "version":0,
    "idOld":"minecraft:prismarine[variant=prismarine]"
},
{
    "baseColor":24,
    "id":"minecraft:purple_concrete",
    "nameZH":"紫色混凝土",
    "nameEN":"Purple concrete",
    "icon":"purple_concrete.png",
    "version":0,
    "idOld":"minecraft:concrete[color=purple]"
},
{
    "baseColor":24,
    "id":"minecraft:purple_wool",
    "nameZH":"紫色羊毛",
    "nameEN":"Purple wool",
    "icon":"purple_wool.png",
    "version":0,
    "idOld":"minecraft:wool[color=purple]",
    "burnable":true
},
{
    "baseColor":24,
    "id":"minecraft:purple_stained_glass",
    "nameZH":"紫色染色玻璃",
    "nameEN":"Purple glass",
    "icon":"purple_stained_glass.png",
    "version":0,
    "idOld":"minecraft:stained_glass[color=purple]"
},
{
    "baseColor":24,
    "id":"minecraft:amethyst_block",
    "nameZH":"紫水晶块",
    "nameEN":"Amethyst block",
    "icon":"amethyst_block.png",
    "version":17
},
{
    "baseColor":25,
    "id":"minecraft:blue_concrete",
    "nameZH":"蓝色混凝土",
    "nameEN":"Blue concrete",
    "icon":"blue_concrete.png",
    "version":0,
    "idOld":"minecraft:concrete[color=blue]"
},
{
    "baseColor":25,
    "id":"minecraft:blue_wool",
    "nameZH":"蓝色羊毛",
    "nameEN":"Blue wool",
    "icon":"blue_wool.png",
    "version":0,
    "idOld":"minecraft:wool[color=blue]",
    "burnable":true
},
{
    "baseColor":25,
    "id":"minecraft:blue_stained_glass",
    "nameZH":"蓝色染色玻璃",
    "nameEN":"Blue glass",
    "icon":"blue_stained_glass.png",
    "version":0,
    "idOld":"minecraft:stained_glass[color=blue]"
},
{
    "baseColor":26,
    "id":"minecraft:brown_concrete",
    "nameZH":"棕色混凝土",
    "nameEN":"Brown concrete",
    "icon":"brown_concrete.png",
    "version":0,
    "idOld":"minecraft:concrete[color=brown]"
},
{
    "baseColor":26,
    "id":"minecraft:brown_wool",
    "nameZH":"棕色羊毛",
    "nameEN":"Brown wool",
    "icon":"brown_wool.png",
    "version":0,
    "idOld":"minecraft:wool[color=brown]",
    "burnable":true
},
{
    "baseColor":26,
    "id":"minecraft:brown_stained_glass",
    "nameZH":"棕色染色玻璃",
    "nameEN":"Brown glass",
    "icon":"brown_stained_glass.png",
    "version":0,
    "idOld":"minecraft:stained_glass[color=brown]"
},
{
    "baseColor":26,
    "id":"minecraft:dark_oak_planks",
    "nameZH":"黑橡木木板",
    "nameEN":"Dark oak plank",
    "icon":"dark_oak_planks.png",
    "version":0,
    "idOld":"minecraft:planks[variant=dark_oak]",
    "burnable":true
},
{
    "baseColor":26,
    "id":"minecraft:soul_sand",
    "nameZH":"灵魂沙",
    "nameEN":"Soul sand",
    "icon":"soul_sand.png",
    "version":0
},
{
    "baseColor":26,
    "id":"minecraft:soul_soil",
    "nameZH":"灵魂土",
    "nameEN":"Soul soil",
    "icon":"soul_soil.png",
    "version":16
},
{
    "baseColor":27,
    "id":"minecraft:green_concrete",
    "nameZH":"绿色混凝土",
    "nameEN":"Green concrete",
    "icon":"green_concrete.png",
    "version":0,
    "idOld":"minecraft:concrete[color=green]"
},
{
    "baseColor":27,
    "id":"minecraft:green_wool",
    "nameZH":"绿色羊毛",
    "nameEN":"Green wool",
    "icon":"green_wool.png",
    "version":0,
    "idOld":"minecraft:wool[color=green]",
    "burnable":true
},
{
    "baseColor":27,
    "id":"minecraft:green_stained_glass",
    "nameZH":"绿色染色玻璃",
    "nameEN":"Green glass",
    "icon":"green_stained_glass.png",
    "version":0,
    "idOld":"minecraft:stained_glass[color=green]"
},
{
    "baseColor":27,
    "id":"minecraft:dried_kelp_block",
    "nameZH":"海带块",
    "nameEN":"Kelp block",
    "icon":"dried_kelp_block.png",
    "version":13
},
{
    "baseColor":28,
    "id":"minecraft:red_concrete",
    "nameZH":"红色混凝土",
    "nameEN":"Red concrete",
    "icon":"red_concrete.png",
    "version":0,
    "idOld":"minecraft:concrete[color=red]"
},
{
    "baseColor":28,
    "id":"minecraft:red_wool",
    "nameZH":"红色羊毛",
    "nameEN":"Red wool",
    "icon":"red_wool.png",
    "version":0,
    "idOld":"minecraft:wool[color=red]",
    "burnable":true
},
{
    "baseColor":28,
    "id":"minecraft:red_stained_glass",
    "nameZH":"红色染色玻璃",
    "nameEN":"Red glass",
    "icon":"red_stained_glass.png",
    "version":0,
    "idOld":"minecraft:stained_glass[color=red]"
},
{
    "baseColor":28,
    "id":"minecraft:bricks",
    "nameZH":"砖块",
    "nameEN":"Bricks",
    "icon":"bricks.png",
    "version":0,
    "idOld":"minecraft:brick_block"
},
{
    "baseColor":28,
    "id":"minecraft:red_mushroom_block[east=true,west=true,north=true,south=true,up=true,down=true]",
    "nameZH":"红色蘑菇块",
    "nameEN":"Red mushroom block",
    "icon":"red_mushroom_block.png",
    "version":0,
    "idOld":"minecraft:red_mushroom_block[variant=all_outside]",
    "burnable":true
},
{
    "baseColor":28,
    "id":"minecraft:nether_wart_block",
    "nameZH":"地狱疣块",
    "nameEN":"Nether wart block",
    "icon":"nether_wart_block.png",
    "version":0
},
{
    "baseColor":28,
    "id":"minecraft:shroomlight",
    "nameZH":"菌光体",
    "nameEN":"Shroomlight",
    "icon":"shroomlight.png",
    "version":16,
    "isGlowing":true
},
{
    "baseColor":29,
    "id":"minecraft:black_concrete",
    "nameZH":"黑色混凝土",
    "nameEN":"Black concrete",
    "icon":"black_concrete.png",
    "version":0,
    "idOld":"minecraft:concrete[color=black]"
},
{
    "baseColor":29,
    "id":"minecraft:black_wool",
    "nameZH":"黑色羊毛",
    "nameEN":"Black wool",
    "icon":"black_wool.png",
    "version":0,
    "idOld":"minecraft:wool[color=black]",
    "burnable":true
},
{
    "baseColor":29,
    "id":"minecraft:black_stained_glass",
    "nameZH":"黑色染色玻璃",
    "nameEN":"Blakc glass",
    "icon":"black_stained_glass.png",
    "version":0,
    "idOld":"minecraft:stained_glass[color=black]"
},
{
    "baseColor":29,
    "id":"minecraft:obsidian",
    "nameZH":"黑曜石",
    "nameEN":"Obsidian",
    "icon":"obsidian.png",
    "version":0
},
{
    "baseColor":29,
    "id":"minecraft:coal_block",
    "nameZH":"煤块",
    "nameEN":"Coal block",
    "icon":"coal_block.png",
    "version":0
},
{
    "baseColor":29,
    "id":"minecraft:polished_basalt[axis=y]",
    "nameZH":"磨制玄武岩",
    "nameEN":"Polished basalt",
    "icon":"polished_basalt.png",
    "version":16
},
{
    "baseColor":29,
    "id":"minecraft:polished_blackstone",
    "nameZH":"磨制黑石",
    "nameEN":"Polished blackstone",
    "icon":"polished_blackstone.png",
    "version":16
},
{
    "baseColor":30,
    "id":"minecraft:gold_block",
    "nameZH":"金块",
    "nameEN":"Gold block",
    "icon":"gold_block.png",
    "version":0
},
{
    "baseColor":30,
    "id":"minecraft:light_weighted_pressure_plate[power=0]",
    "nameZH":"金压力板",
    "nameEN":"Gold pressure plate",
    "icon":"light_weighted_pressure_plate.png",
    "version":0,
    "needGlass":true
},
{
    "baseColor":30,
    "id":"minecraft:raw_gold_block",
    "nameZH":"粗金块",
    "nameEN":"Raw gold block",
    "icon":"raw_gold_block.png",
    "version":17
},
{
    "baseColor":31,
    "id":"minecraft:diamond_block",
    "nameZH":"钻石块",
    "nameEN":"Diamond block",
    "icon":"diamond_block.png",
    "version":0
},
{
    "baseColor":31,
    "id":"minecraft:prismarine_bricks",
    "nameZH":"海晶石砖",
    "nameEN":"Prismarine bricks",
    "icon":"prismarine_bricks.png",
    "version":0,
    "idOld":"minecraft:prismarine[variant=prismarine_bricks]"
},
{
    "baseColor":31,
    "id":"minecraft:dark_prismarine",
    "nameZH":"暗海晶石",
    "nameEN":"Dark prismarine",
    "icon":"dark_prismarine.png",
    "version":0,
    "idOld":"minecraft:prismarine[variant=dark_prismarine]"
},
{
    "baseColor":32,
    "id":"minecraft:lapis_block",
    "nameZH":"青金石块",
    "nameEN":"Lapis block",
    "icon":"lapis_block.png",
    "version":0
},
{
    "baseColor":33,
    "id":"minecraft:emerald_block",
    "nameZH":"绿宝石块",
    "nameEN":"Emerald block",
    "icon":"emerald_block.png",
    "version":0
},
{
    "baseColor":34,
    "id":"minecraft:podzol[snowy=false]",
    "nameZH":"灰化土",
    "nameEN":"Podzol",
    "icon":"podzol.png",
    "version":0,
    "idOld":"minecraft:dirt[variant=podzol,snowy=false]",
    "endermanPickable":true
},
{
    "baseColor":34,
    "id":"minecraft:spruce_planks",
    "nameZH":"云杉木板",
    "nameEN":"Spruce plank",
    "icon":"spruce_planks.png",
    "version":0,
    "idOld":"minecraft:planks[variant=spruce]",
    "burnable":true
},
{
    "baseColor":34,
    "id":"minecraft:campfire[facing=north,lit=true,signal_fire=false,waterlogged=false]",
    "nameZH":"营火",
    "nameEN":"Campfire",
    "icon":"campfire.png",
    "version":14,
    "isGlowing":true,
    "wallUseable":false
},
{
    "baseColor":35,
    "id":"minecraft:netherrack",
    "nameZH":"地狱岩",
    "nameEN":"Netherrack",
    "icon":"netherrack.png",
    "version":0
},
{
    "baseColor":35,
    "id":"minecraft:nether_bricks",
    "nameZH":"地狱砖块",
    "nameEN":"Nether brick",
    "icon":"nether_bricks.png",
    "version":0,
    "idOld":"minecraft:nether_brick"
},
{
    "baseColor":35,
    "id":"minecraft:magma_block",
    "nameZH":"岩浆块",
    "nameEN":"Magma block",
    "icon":"magma_block.png",
    "version":0,
    "idOld":"minecraft:magma"
},
{
    "baseColor":36,
    "id":"minecraft:white_terracotta",
    "nameZH":"白色陶瓦",
    "nameEN":"White terracotta",
    "icon":"white_terracotta.png",
    "version":0,
    "idOld":"minecraft:stained_hardened_clay[color=white]"
},
{
    "baseColor":36,
    "id":"minecraft:calcite",
    "nameZH":"方解石",
    "nameEN":"Calcite",
    "icon":"calcite.png",
    "version":17
},
{
    "baseColor":37,
    "id":"minecraft:orange_terracotta",
    "nameZH":"橙色陶瓦",
    "nameEN":"Orange terracotta",
    "icon":"orange_terracotta.png",
    "version":0,
    "idOld":"minecraft:stained_hardened_clay[color=orange]"
},
{
    "baseColor":38,
    "id":"minecraft:magenta_terracotta",
    "nameZH":"品红陶瓦",
    "nameEN":"Magenta terracotta",
    "icon":"magenta_terracotta.png",
    "version":0,
    "idOld":"minecraft:stained_hardened_clay[color=magenta]"
},
{
    "baseColor":39,
    "id":"minecraft:light_blue_terracotta",
    "nameZH":"浅蓝陶瓦",
    "nameEN":"Light blue terracotta",
    "icon":"light_blue_terracotta.png",
    "version":0,
    "idOld":"minecraft:stained_hardened_clay[color=light_blue]"
},
{
    "baseColor":40,
    "id":"minecraft:yellow_terracotta",
    "nameZH":"黄色陶瓦",
    "nameEN":"Yellow terracotta",
    "icon":"yellow_terracotta.png",
    "version":0,
    "idOld":"minecraft:stained_hardened_clay[color=yellow]"
},
{
    "baseColor":41,
    "id":"minecraft:lime_terracotta",
    "nameZH":"浅绿陶瓦",
    "nameEN":"Lime terracotta",
    "icon":"lime_terracotta.png",
    "version":0,
    "idOld":"minecraft:stained_hardened_clay[color=lime]"
},
{
    "baseColor":42,
    "id":"minecraft:pink_terracotta",
    "nameZH":"粉色陶瓦",
    "nameEN":"Pink terracotta",
    "icon":"pink_terracotta.png",
    "version":0,
    "idOld":"minecraft:stained_hardened_clay[color=pink]"
},
{
    "baseColor":43,
    "id":"minecraft:gray_terracotta",
    "nameZH":"灰色陶瓦",
    "nameEN":"Gray terracotta",
    "icon":"gray_terracotta.png",
    "version":0,
    "idOld":"minecraft:stained_hardened_clay[color=gray]"
},
{
    "baseColor":44,
    "id":"minecraft:light_gray_terracotta",
    "nameZH":"浅灰陶瓦",
    "nameEN":"Light gray terracotta",
    "icon":"light_gray_terracotta.png",
    "version":0,
    "idOld":"minecraft:stained_hardened_clay[color=silver]"
},
{
    "baseColor":44,
    "id":"minecraft:waxed_exposed_copper",
    "nameZH":"涂蜡斑驳铜块",
    "nameEN":"Waxed exposed copper",
    "icon":"waxed_exposed_copper.png",
    "version":17
},
{
    "baseColor":44,
    "id":"minecraft:waxed_exposed_cut_copper",
    "nameZH":"涂蜡切制斑驳铜块",
    "nameEN":"Waxed exposed cut copper",
    "icon":"waxed_exposed_cut_copper.png",
    "version":17
},
{
    "baseColor":45,
    "id":"minecraft:cyan_terracotta",
    "nameZH":"青色陶瓦",
    "nameEN":"Cyan terracotta",
    "icon":"cyan_terracotta.png",
    "version":0,
    "idOld":"minecraft:stained_hardened_clay[color=cyan]"
},
{
    "baseColor":46,
    "id":"minecraft:purple_terracotta",
    "nameZH":"紫色陶瓦",
    "nameEN":"Purple terracotta",
    "icon":"purple_terracotta.png",
    "version":0,
    "idOld":"minecraft:stained_hardened_clay[color=purple]"
},
{
    "baseColor":47,
    "id":"minecraft:blue_terracotta",
    "nameZH":"蓝色陶瓦",
    "nameEN":"Blue terracotta",
    "icon":"blue_terracotta.png",
    "version":0,
    "idOld":"minecraft:stained_hardened_clay[color=blue]"
},
{
    "baseColor":48,
    "id":"minecraft:brown_terracotta",
    "nameZH":"棕色陶瓦",
    "nameEN":"Brown terracotta",
    "icon":"brown_terracotta.png",
    "version":0,
    "idOld":"minecraft:stained_hardened_clay[color=brown]"
},
{
    "baseColor":48,
    "id":"minecraft:dripstone_block",
    "nameZH":"滴水石块",
    "nameEN":"DripStone Block",
    "icon":"dripstone_block.png",
    "version":17
},
{
    "baseColor":49,
    "id":"minecraft:green_terracotta",
    "nameZH":"绿色陶瓦",
    "nameEN":"Green terracotta",
    "icon":"green_terracotta.png",
    "version":0,
    "idOld":"minecraft:stained_hardened_clay[color=green]"
},
{
    "baseColor":50,
    "id":"minecraft:red_terracotta",
    "nameZH":"红色陶瓦",
    "nameEN":"Red terracotta",
    "icon":"red_terracotta.png",
    "version":0,
    "idOld":"minecraft:stained_hardened_clay[color=red]"
},
{
    "baseColor":51,
    "id":"minecraft:black_terracotta",
    "nameZH":"黑色陶瓦",
    "nameEN":"Black terracotta",
    "icon":"black_terracotta.png",
    "version":0,
    "idOld":"minecraft:stained_hardened_clay[color=black]"
},
{
    "baseColor":52,
    "id":"minecraft:crimson_nylium",
    "nameZH":"绯红菌岩",
    "nameEN":"Crimson nylium",
    "icon":"crimson_nylium.png",
    "version":16,
    "endermanPickable":true,
    "wallUseable":false
},
{
    "baseColor":53,
    "id":"minecraft:crimson_planks",
    "nameZH":"绯红木板",
    "nameEN":"Crimson plank",
    "icon":"crimson_planks.png",
    "version":16,
    "burnable":true
},
{
    "baseColor":53,
    "id":"minecraft:stripped_crimson_stem[axis=y]",
    "nameZH":"去皮绯红原木",
    "nameEN":"Stripped crimson log",
    "icon":"stripped_crimson_stem.png",
    "version":16,
    "burnable":true
},
{
    "baseColor":54,
    "id":"minecraft:crimson_hyphae[axis=y]",
    "nameZH":"绯红树皮",
    "nameEN":"Crimson hyphae",
    "icon":"crimson_hyphae.png",
    "version":16,
    "burnable":true
},
{
    "baseColor":54,
    "id":"minecraft:stripped_crimson_hyphae[axis=y]",
    "nameZH":"去皮绯红树皮",
    "nameEN":"Stripped crimson hyphae",
    "icon":"stripped_crimson_hyphae.png",
    "version":16,
    "burnable":true
},
{
    "baseColor":55,
    "id":"minecraft:warped_nylium",
    "nameZH":"扭曲菌岩",
    "nameEN":"Warped nylium",
    "icon":"warped_nylium.png",
    "version":16,
    "endermanPickable":true,
    "wallUseable":false
},
{
    "baseColor":55,
    "id":"minecraft:waxed_oxidized_copper",
    "nameZH":"涂蜡氧化铜块",
    "nameEN":"Waxed oxided copper",
    "icon":"waxed_oxidized_copper.png",
    "version":17
},
{
    "baseColor":55,
    "id":"minecraft:waxed_oxidized_cut_copper",
    "nameZH":"涂蜡切制氧化铜块",
    "nameEN":"Waxed oxided cut copper",
    "icon":"waxed_oxidized_cut_copper.png",
    "version":17
},
{
    "baseColor":56,
    "id":"minecraft:warped_planks",
    "nameZH":"扭曲木板",
    "nameEN":"Warped plank",
    "icon":"warped_planks.png",
    "version":16,
    "burnable":true
},
{
    "baseColor":56,
    "id":"minecraft:stripped_warped_stem[axis=y]",
    "nameZH":"去皮扭曲原木",
    "nameEN":"Stripped warped log",
    "icon":"stripped_warped_stem.png",
    "version":16,
    "burnable":true
},
{
    "baseColor":56,
    "id":"minecraft:waxed_weathered_copper",
    "nameZH":"涂蜡生锈铜块",
    "nameEN":"Waxed weathered copper",
    "icon":"waxed_weathered_copper.png",
    "version":17
},
{
    "baseColor":56,
    "id":"minecraft:waxed_oxidized_cut_copper",
    "nameZH":"涂蜡切制生锈铜块",
    "nameEN":"Waxed weathered cut copper",
    "icon":"waxed_oxidized_cut_copper.png",
    "version":17
},
{
    "baseColor":57,
    "id":"minecraft:warped_hyphae[axis=y]",
    "nameZH":"扭曲树皮",
    "nameEN":"Warped hyphae",
    "icon":"warped_hyphae.png",
    "version":16,
    "burnable":true
},
{
    "baseColor":57,
    "id":"minecraft:stripped_warped_hyphae[axis=y]",
    "nameZH":"去皮扭曲树皮",
    "nameEN":"Stripped warped hyphae",
    "icon":"stripped_warped_hyphae.png",
    "version":16,
    "burnable":true
},
{
    "baseColor":58,
    "id":"minecraft:warped_wart_block",
    "nameZH":"扭曲疣块",
    "nameEN":"Warped wart block",
    "icon":"warped_wart_block.png",
    "version":16
},
{
    "baseColor":59,
    "id":"minecraft:deepslate",
    "nameZH":"深板岩",
    "nameEN":"Deepslate",
    "icon":"deepslate.png",
    "version":17
},
{
    "baseColor":59,
    "id":"minecraft:chiseled_deepslate",
    "nameZH":"錾制深板岩",
    "nameEN":"Chiseled deepslate",
    "icon":"chiseled_deepslate.png",
    "version":17
},
{
    "baseColor":59,
    "id":"minecraft:polished_deepslate",
    "nameZH":"磨制深板岩",
    "nameEN":"Polished deepslate",
    "icon":"polished_deepslate.png",
    "version":17
},
{
    "baseColor":59,
    "id":"minecraft:deepslate_bricks",
    "nameZH":"深板岩砖",
    "nameEN":"Deepslate bricks",
    "icon":"deepslate_bricks.png",
    "version":17
},
{
    "baseColor":59,
    "id":"minecraft:deepslate_tiles",
    "nameZH":"深板岩瓦",
    "nameEN":"Deepslate tiles",
    "icon":"deepslate_tiles.png",
    "version":17
},
{
    "baseColor":59,
    "id":"minecraft:cobbled_deepslate",
    "nameZH":"深板岩圆石",
    "nameEN":"Cobbled deepslate",
    "icon":"cobbled_deepslate.png",
    "version":17
},
{
    "baseColor":60,
    "id":"minecraft:raw_iron_block",
    "nameZH":"生铁块",
    "nameEN":"Raw iron block",
    "icon":"raw_iron_block.png",
    "version":17
},
{
    "baseColor":61,
    "id":"minecraft:glow_lichen[down=true,east=false,north=false,south=false,up=false,waterlogged=false]",
    "nameZH":"发光地衣",
    "nameEN":"Glow lichen",
    "icon":"glow_lichen.png",
    "version":17,
    "needGlass":true,
    "isGlowing":true,
    "burnable":true,
    "wallUseable":false
}
]}
